// Jest Snapshot v1, https://goo.gl/fbAQLP

exports[`PendingAuthorConfirmationDialog.vue Displays a warning message 1`] = `
<div
  class="v-card__text"
>
  <div>
    
                You are about to 
    <strong>
      unblock
    </strong>
     authorship for undefined undefined.
            
  </div>
</div>
`;
