// Jest Snapshot v1, https://goo.gl/fbAQLP

exports[`SuspensionConfirmationDialog.vue Displays a warning message 1`] = `
<div
  class="v-card__text"
>
  <div>
    
                You are about to 
                
    <strong>
      unsuspend
    </strong>
     
                the activity of Moore Ralph.
            
  </div>
</div>
`;
